Session4: File I/O
…
Wide to Tidy Format

Expe %>%
  pivot_longer(cols = , everything(), 
               ## Name of column that will get the group / feature information
               names_to = "Treatment", 
               ## Name of column that will get values 
               values_to = "Cells") %>%
  drop_na %>%
  arrange(Treatment) ->
  Expe
Expe

# A tibble: 30 x 2
   Treatment Cells
   <chr>     <dbl>
 1 Control       3
 2 Control       4
 3 Control       4
 4 Control       5
 5 Control       2
 6 Control       6
 7 Control       3
 8 Drug1        12
 9 Drug1        15
10 Drug1        13
#  with 20 more rows
…
